{
  "testClothHelmet": {
    "id": 0,
    "name": "Cloth Helmet",
    "slot": "Head",
    "armorType": "Cloth",
    "armorValue": 5,
    "armorToughness": 2,
    "requiredLevel":  2
  },

  "testPlateChestplate": {
    "id": 1,
    "name": "Plate Chestplate",
    "slot": "Body",
    "armorType": "Plate",
    "armorValue": 7,
    "armorToughness": 4,
    "requiredLevel": 3
  },

  "testLeatherLegging": {
    "id": 2,
    "name": "Leather Leggings",
    "slot": "Legs",
    "armorType": "Leather",
    "armorValue": 5,
    "armorToughness": 2,
    "requiredLevel": 1
  },

  "testMailHelmet": {
    "id": 3,
    "name": "Mail Helmet",
    "slot": "Head",
    "armorType": "Mail",
    "armorValue": 7,
    "armorToughness": 4,
    "requiredLevel": 4
  },

  "testClothChestplate": {
    "id": 4,
    "name": "Cloth Chestplate",
    "slot": "Body",
    "armorType": "Cloth",
    "armorValue": 6,
    "armorToughness": 3,
    "requiredLevel": 1
  },

  "testPlateLegging": {
    "id": 5,
    "name": "Leather Leggings",
    "slot": "Legs",
    "armorType": "Plate",
    "armorValue": 6,
    "armorToughness": 3,
    "requiredLevel": 2
  }
}